module gitlab.com/gilardh/lightwalletd

go 1.12

require (
	cloud.google.com/go v0.46.3 // indirect
	github.com/btcsuite/btcd v0.0.0-20190926002857-ba530c4abb35
	github.com/btcsuite/goleveldb v1.0.0 // indirect
	github.com/creack/pty v1.1.9 // indirect
	github.com/golang/groupcache v0.0.0-20191002201903-404acd9df4cc // indirect
	github.com/golang/protobuf v1.3.2
	github.com/google/go-cmp v0.3.1 // indirect
	github.com/google/pprof v0.0.0-20190930153522-6ce02741cba3 // indirect
	github.com/gopherjs/gopherjs v0.0.0-20190915194858-d3ddacdb130f // indirect
	github.com/hashicorp/golang-lru v0.5.3 // indirect
	github.com/jessevdk/go-flags v1.4.0 // indirect
	github.com/jstemmer/go-junit-report v0.9.1 // indirect
	github.com/kkdai/bstream v1.0.0 // indirect
	github.com/konsorten/go-windows-terminal-sequences v1.0.2 // indirect
	github.com/kr/pty v1.1.8 // indirect
	github.com/mattn/go-sqlite3 v1.11.0
	github.com/onsi/ginkgo v1.10.2 // indirect
	github.com/onsi/gomega v1.7.0 // indirect
	github.com/pebbe/zmq4 v1.0.0 // indirect
	github.com/pkg/errors v0.8.1
	github.com/rogpeppe/go-internal v1.5.0 // indirect
	github.com/sirupsen/logrus v1.4.2
	github.com/smartystreets/assertions v1.0.1 // indirect
	github.com/smartystreets/goconvey v0.0.0-20190731233626-505e41936337 // indirect
	github.com/stretchr/objx v0.2.0 // indirect
	github.com/stretchr/testify v1.4.0 // indirect
	go.opencensus.io v0.22.1 // indirect
	golang.org/x/crypto v0.0.0-20191002192127-34f69633bfdc // indirect
	golang.org/x/exp v0.0.0-20191002040644-a1355ae1e2c3 // indirect
	golang.org/x/image v0.0.0-20190910094157-69e4b8554b2a // indirect
	golang.org/x/lint v0.0.0-20190930215403-16217165b5de // indirect
	golang.org/x/mobile v0.0.0-20191002175909-6d0d39b2ca82 // indirect
	golang.org/x/net v0.0.0-20191007182048-72f939374954
	golang.org/x/sync v0.0.0-20190911185100-cd5d95a43a6e // indirect
	golang.org/x/sys v0.0.0-20191008105621-543471e840be // indirect
	golang.org/x/time v0.0.0-20190921001708-c4c64cad1fd0 // indirect
	golang.org/x/tools v0.0.0-20191007185444-6536af71d98a // indirect
	google.golang.org/api v0.10.0 // indirect
	google.golang.org/appengine v1.6.5 // indirect
	google.golang.org/genproto v0.0.0-20191007204434-a023cd5227bd // indirect
	google.golang.org/grpc v1.24.0
	gopkg.in/check.v1 v1.0.0-20190902080502-41f04d3bba15 // indirect
	gopkg.in/ini.v1 v1.48.0
	gopkg.in/yaml.v2 v2.2.4 // indirect
)
